xsim.log
#-----------------------------------------------------------
# xsim v2022.1 (64-bit)
# SW Build 3526262 on Mon Apr 18 15:47:01 MDT 2022
# IP Build 3524634 on Mon Apr 18 20:55:01 MDT 2022
# Start of session at: Sun Mar 24 05:29:52 2024
# Process ID: 389069
# Current directory: /home/ubuntu/SoC_Design/caravel-soc_fpga-lab/fsic-sim/fsic_fpga/rtl/user/testbench/tc
# Command line: xsim -mode tcl -source {xsim.dir/tb_fsic_xelab/xsim_script.tcl}
# Log file: /home/ubuntu/SoC_Design/caravel-soc_fpga-lab/fsic-sim/fsic_fpga/rtl/user/testbench/tc/xsim.log
# Journal file: /home/ubuntu/SoC_Design/caravel-soc_fpga-lab/fsic-sim/fsic_fpga/rtl/user/testbench/tc/xsim.jou
# Running On: ubuntu2004, OS: Linux, CPU Frequency: 3393.624 MHz, CPU Physical cores: 4, Host memory: 12538 MB
#-----------------------------------------------------------
source xsim.dir/tb_fsic_xelab/xsim_script.tcl
# xsim {tb_fsic_xelab} -autoloadwcfg -tclbatch {log_wave.tcl}
Time resolution is 1 ps
open_wave_config /home/ubuntu/SoC_Design/caravel-soc_fpga-lab/fsic-sim/fsic_fpga/rtl/user/testbench/tc/tb_fsic_xelab.wcfg
WARNING: Simulation object /tb_fsic/dut/U_MPRJ_IO0/vccd1 was not found in the design.
WARNING: Simulation object /tb_fsic/dut/U_MPRJ_IO0/vccd2 was not found in the design.
WARNING: Simulation object /tb_fsic/dut/U_MPRJ_IO0/vssd1 was not found in the design.
WARNING: Simulation object /tb_fsic/dut/U_MPRJ_IO0/vssd2 was not found in the design.
WARNING: Simulation object /tb_fsic/vccd1 was not found in the design.
WARNING: Simulation object /tb_fsic/vccd2 was not found in the design.
WARNING: Simulation object /tb_fsic/vssd1 was not found in the design.
WARNING: Simulation object /tb_fsic/vssd2 was not found in the design.
WARNING: Simulation object /tb_fsic/dut/AXIS_SW0/pre_rd_ptr_reg was not found in the design.
WARNING: Simulation object /tb_fsic/dut/AXIS_SW0/as_up_tvalid_reg was not found in the design.
WARNING: Simulation object /tb_fsic/dut/AXIS_SW0/as_aa_tvalid_reg was not found in the design.
WARNING: Simulation object /tb_fsic/dut/AXIS_SW0/delaynext was not found in the design.
WARNING: Simulation object /tb_fsic/dut/AXIS_SW0/pre_m_axis was not found in the design.
WARNING: Simulation object /tb_fsic/dut/U_USER_SUBSYS0/U_USRPRJ0/reg_edgedetect_done was not found in the design.
WARNING: Simulation object /tb_fsic/dut/U_USER_SUBSYS0/U_USRPRJ0/edgedetect_done was not found in the design.
WARNING: Simulation object /tb_fsic/dut/U_USER_SUBSYS0/U_USRPRJ0/rd_state was not found in the design.
WARNING: Simulation object /tb_fsic/dut/U_USER_SUBSYS0/U_USRPRJ0/rd_next_state was not found in the design.
WARNING: Simulation object /tb_fsic/dut/U_USER_SUBSYS0/U_USRPRJ0/reg_widthIn was not found in the design.
WARNING: Simulation object /tb_fsic/dut/U_USER_SUBSYS0/U_USRPRJ0/reg_heightIn was not found in the design.
WARNING: Simulation object /tb_fsic/dut/U_USER_SUBSYS0/U_USRPRJ0/reg_sw_in was not found in the design.
WARNING: Simulation object /tb_fsic/dut/U_USER_SUBSYS0/U_USRPRJ0/reg_rst was not found in the design.
WARNING: Simulation object /tb_fsic/dut/U_USER_SUBSYS0/U_USRPRJ0/crc32_stream_in was not found in the design.
WARNING: Simulation object /tb_fsic/dut/U_USER_SUBSYS0/U_USRPRJ0/crc32_stream_out was not found in the design.
WARNING: Simulation object /tb_fsic/dut/U_USER_SUBSYS0/U_USRPRJ0/reg_crc32_stream_in was not found in the design.
WARNING: Simulation object /tb_fsic/dut/U_USER_SUBSYS0/U_USRPRJ0/reg_crc32_stream_out was not found in the design.
WARNING: Simulation object /tb_fsic/dut/AXIS_SW0/as_up_tvalid_reg was not found in the design.
WARNING: Simulation object /tb_fsic/dut/AXIS_SW0/pre_rd_ptr_reg was not found in the design.
WARNING: Simulation object /tb_fsic/dut/AXIS_SW0/as_up_tvalid_reg was not found in the design.
WARNING: Simulation object /tb_fsic/dut/AXIS_SW0/as_aa_tvalid_reg was not found in the design.
WARNING: Simulation object /tb_fsic/dut/AXIS_SW0/delaynext was not found in the design.
WARNING: Simulation object /tb_fsic/dut/AXIS_SW0/pre_m_axis was not found in the design.
source log_wave.tcl
## log_wave -quiet -verbose -recursive *
## run all
fsci_system_initial: TX/RX test
                  40=> soc POR Assert
                  40=> fpga POR Assert
                  40=> fpga reset Assert
                  80=> soc POR De-Assert
                  80=> fpga POR De-Assert
                 120=> fpga reset De-Assert
                 185=> fpga_as_to_is_init done
                 225=> fpga_cfg_write : fpga_axi_awaddr=0000, fpga_axi_awvalid=1, fpga_axi_awready=1, fpga_axi_wdata=00000001, axi_wstrb=1, fpga_axi_wvalid=1, fpga_axi_wready=1
                 425=> soc_is_cfg_write : wbs_adr=30003000, wbs_sel=0001, wbs_wdata=00000001
                 425=> soc rxen_ctl=1
                 425=> fpga rxen_ctl=1
                 865=> fpga_cfg_write : fpga_axi_awaddr=0000, fpga_axi_awvalid=1, fpga_axi_awready=1, fpga_axi_wdata=00000003, axi_wstrb=1, fpga_axi_wvalid=1, fpga_axi_wready=1
                1025=> soc_is_cfg_write : wbs_adr=30003000, wbs_sel=0001, wbs_wdata=00000003
                1025=> soc txen_ctl=1
                1025=> fpga txen_ctl=1
                1665=> soc_is_cfg_write : wbs_adr=30005000, wbs_sel=1111, wbs_wdata=00000001
                1905=> soc_up_cfg_read : wbs_adr=30000000, wbs_sel=1111
                1905=> soc wishbone read data result : send soc_cfg_read_event
                1905=> soc_up_cfg_read : got soc_cfg_read_event
                2185=> soc_up_cfg_write : wbs_adr=30000010, wbs_sel=1111, wbs_wdata=00000040
                2465=> soc_up_cfg_write : wbs_adr=30000020, wbs_sel=1111, wbs_wdata=00000000
                2745=> soc_up_cfg_write : wbs_adr=30000024, wbs_sel=1111, wbs_wdata=fffffff6
                3025=> soc_up_cfg_write : wbs_adr=30000028, wbs_sel=1111, wbs_wdata=fffffff7
                3305=> soc_up_cfg_write : wbs_adr=3000002c, wbs_sel=1111, wbs_wdata=00000017
                3585=> soc_up_cfg_write : wbs_adr=30000030, wbs_sel=1111, wbs_wdata=00000038
                3865=> soc_up_cfg_write : wbs_adr=30000034, wbs_sel=1111, wbs_wdata=0000003f
                4145=> soc_up_cfg_write : wbs_adr=30000038, wbs_sel=1111, wbs_wdata=00000038
                4425=> soc_up_cfg_write : wbs_adr=3000003c, wbs_sel=1111, wbs_wdata=00000017
                4705=> soc_up_cfg_write : wbs_adr=30000040, wbs_sel=1111, wbs_wdata=fffffff7
                4985=> soc_up_cfg_write : wbs_adr=30000044, wbs_sel=1111, wbs_wdata=fffffff6
                5265=> soc_up_cfg_write : wbs_adr=30000048, wbs_sel=1111, wbs_wdata=00000000
                5505=> soc_up_cfg_read : wbs_adr=30000010, wbs_sel=1111
                5505=> soc wishbone read data result : send soc_cfg_read_event
                5505=> soc_up_cfg_read : got soc_cfg_read_event
                5785=> soc_up_cfg_read : wbs_adr=30000020, wbs_sel=1111
                5785=> soc wishbone read data result : send soc_cfg_read_event
                5785=> soc_up_cfg_read : got soc_cfg_read_event
                6065=> soc_up_cfg_read : wbs_adr=30000024, wbs_sel=1111
                6065=> soc wishbone read data result : send soc_cfg_read_event
                6065=> soc_up_cfg_read : got soc_cfg_read_event
                6345=> soc_up_cfg_read : wbs_adr=30000028, wbs_sel=1111
                6345=> soc wishbone read data result : send soc_cfg_read_event
                6345=> soc_up_cfg_read : got soc_cfg_read_event
                6625=> soc_up_cfg_read : wbs_adr=3000002c, wbs_sel=1111
                6625=> soc wishbone read data result : send soc_cfg_read_event
                6625=> soc_up_cfg_read : got soc_cfg_read_event
                6905=> soc_up_cfg_read : wbs_adr=30000030, wbs_sel=1111
                6905=> soc wishbone read data result : send soc_cfg_read_event
                6905=> soc_up_cfg_read : got soc_cfg_read_event
                7185=> soc_up_cfg_read : wbs_adr=30000034, wbs_sel=1111
                7185=> soc wishbone read data result : send soc_cfg_read_event
                7185=> soc_up_cfg_read : got soc_cfg_read_event
                7465=> soc_up_cfg_read : wbs_adr=30000038, wbs_sel=1111
                7465=> soc wishbone read data result : send soc_cfg_read_event
                7465=> soc_up_cfg_read : got soc_cfg_read_event
                7745=> soc_up_cfg_read : wbs_adr=3000003c, wbs_sel=1111
                7745=> soc wishbone read data result : send soc_cfg_read_event
                7745=> soc_up_cfg_read : got soc_cfg_read_event
                8025=> soc_up_cfg_read : wbs_adr=30000040, wbs_sel=1111
                8025=> soc wishbone read data result : send soc_cfg_read_event
                8025=> soc_up_cfg_read : got soc_cfg_read_event
                8305=> soc_up_cfg_read : wbs_adr=30000044, wbs_sel=1111
                8305=> soc wishbone read data result : send soc_cfg_read_event
                8305=> soc_up_cfg_read : got soc_cfg_read_event
                8585=> soc_up_cfg_read : wbs_adr=30000048, wbs_sel=1111
                8585=> soc wishbone read data result : send soc_cfg_read_event
                8585=> soc_up_cfg_read : got soc_cfg_read_event
                8865=> soc_up_cfg_write : wbs_adr=30000000, wbs_sel=1111, wbs_wdata=00000001
test_aa_mailbox_soc_cfg: start
                9185=> soc_aa_cfg_write : wbs_adr=30002000, wbs_sel=1111, wbs_wdata=a5a5a5a5
                9665=> get soc_to_fpga_mailbox_write_addr_captured be : soc_to_fpga_mailbox_write_addr_captured =xxxxxxxx, fpga_is_as_tdata=f0002000
                9665=> get soc_to_fpga_mailbox_write_addr_captured af : soc_to_fpga_mailbox_write_addr_captured =f0002000, fpga_is_as_tdata=f0002000
                9905=> get soc_to_fpga_mailbox_write_data_captured be : soc_to_fpga_mailbox_write_data_captured =xxxxxxxx, fpga_is_as_tdata=a5a5a5a5
                9905=> get soc_to_fpga_mailbox_write_data_captured af : soc_to_fpga_mailbox_write_data_captured =a5a5a5a5, fpga_is_as_tdata=a5a5a5a5
                9905=> soc_to_fpga_mailbox_write_data_captured : send soc_to_fpga_mailbox_write_event
                9905=> test_aa_mailbox_soc_cfg : got soc_to_fpga_mailbox_write_event
                9905=> test_aa_mailbox_soc_cfg [PASS] soc_to_fpga_mailbox_write_addr_expect_value=0002000, soc_to_fpga_mailbox_write_addr_captured[27:0]=0002000
                9905=> test_aa_mailbox_soc_cfg [PASS] soc_to_fpga_mailbox_write_addr_BE_expect_value=f, soc_to_fpga_mailbox_write_addr_captured[31:28]=f
                9905=> test_aa_mailbox_soc_cfg [PASS] soc_to_fpga_mailbox_write_data_expect_value=a5a5a5a5, soc_to_fpga_mailbox_write_data_captured=a5a5a5a5
test_aa_mailbox_soc_cfg: use AA Mail Box to notify FPGA side - end
--------------------------------------------------------------------
test FIR start
input X data of FIR start
               10025=> fpga_axis_req send data, fpga_as_is_tupsb = 00001, fpga_as_is_tstrb = 0000, fpga_as_is_tkeep = 0000, fpga_as_is_tlast = 0, fpga_as_is_tdata = 00000001
               10065=> fpga_axis_req send data, fpga_as_is_tupsb = 00000, fpga_as_is_tstrb = 0000, fpga_as_is_tkeep = 0000, fpga_as_is_tlast = 0, fpga_as_is_tdata = 00000002
               10105=> fpga_axis_req send data, fpga_as_is_tupsb = 00000, fpga_as_is_tstrb = 0000, fpga_as_is_tkeep = 0000, fpga_as_is_tlast = 0, fpga_as_is_tdata = 00000003
               10145=> fpga_axis_req send data, fpga_as_is_tupsb = 00000, fpga_as_is_tstrb = 0000, fpga_as_is_tkeep = 0000, fpga_as_is_tlast = 0, fpga_as_is_tdata = 00000004
               10185=> fpga_axis_req send data, fpga_as_is_tupsb = 00000, fpga_as_is_tstrb = 0000, fpga_as_is_tkeep = 0000, fpga_as_is_tlast = 0, fpga_as_is_tdata = 00000005
               10225=> fpga_axis_req send data, fpga_as_is_tupsb = 00000, fpga_as_is_tstrb = 0000, fpga_as_is_tkeep = 0000, fpga_as_is_tlast = 0, fpga_as_is_tdata = 00000006
               10265=> fpga_axis_req send data, fpga_as_is_tupsb = 00000, fpga_as_is_tstrb = 0000, fpga_as_is_tkeep = 0000, fpga_as_is_tlast = 0, fpga_as_is_tdata = 00000007
               10305=> fpga_axis_req send data, fpga_as_is_tupsb = 00000, fpga_as_is_tstrb = 0000, fpga_as_is_tkeep = 0000, fpga_as_is_tlast = 0, fpga_as_is_tdata = 00000008
               10345=> fpga_axis_req send data, fpga_as_is_tupsb = 00000, fpga_as_is_tstrb = 0000, fpga_as_is_tkeep = 0000, fpga_as_is_tlast = 0, fpga_as_is_tdata = 00000009
               10385=> fpga_axis_req send data, fpga_as_is_tupsb = 00000, fpga_as_is_tstrb = 0000, fpga_as_is_tkeep = 0000, fpga_as_is_tlast = 0, fpga_as_is_tdata = 0000000a
               10425=> fpga_axis_req send data, fpga_as_is_tupsb = 00000, fpga_as_is_tstrb = 0000, fpga_as_is_tkeep = 0000, fpga_as_is_tlast = 0, fpga_as_is_tdata = 0000000b
               10465=> fpga_axis_req send data, fpga_as_is_tupsb = 00000, fpga_as_is_tstrb = 0000, fpga_as_is_tkeep = 0000, fpga_as_is_tlast = 0, fpga_as_is_tdata = 0000000c
               10505=> fpga_axis_req send data, fpga_as_is_tupsb = 00000, fpga_as_is_tstrb = 0000, fpga_as_is_tkeep = 0000, fpga_as_is_tlast = 0, fpga_as_is_tdata = 0000000d
               10545=> fpga_axis_req send data, fpga_as_is_tupsb = 00000, fpga_as_is_tstrb = 0000, fpga_as_is_tkeep = 0000, fpga_as_is_tlast = 0, fpga_as_is_tdata = 0000000e
               10585=> fpga_axis_req send data, fpga_as_is_tupsb = 00000, fpga_as_is_tstrb = 0000, fpga_as_is_tkeep = 0000, fpga_as_is_tlast = 0, fpga_as_is_tdata = 0000000f
               10625=> fpga_axis_req send data, fpga_as_is_tupsb = 00000, fpga_as_is_tstrb = 0000, fpga_as_is_tkeep = 0000, fpga_as_is_tlast = 0, fpga_as_is_tdata = 00000010
               10665=> fpga_axis_req send data, fpga_as_is_tupsb = 00000, fpga_as_is_tstrb = 0000, fpga_as_is_tkeep = 0000, fpga_as_is_tlast = 0, fpga_as_is_tdata = 00000011
               10945=> get soc_to_fpga_axis be : soc_to_fpga_axis_captured_count=  0,  soc_to_fpga_axis_captured[  0] =xxxxxxxxxxxx, fpga_is_as_tupsb=xx, fpga_is_as_tstrb=x, fpga_is_as_tkeep=x , fpga_is_as_tlast=0, fpga_is_as_tdata=00000000
               10945=> get soc_to_fpga_axis af : soc_to_fpga_axis_captured_count=  0,  soc_to_fpga_axis_captured[  0] =xxxX00000000, fpga_is_as_tupsb=xx, fpga_is_as_tstrb=x, fpga_is_as_tkeep=x , fpga_is_as_tlast=0, fpga_is_as_tdata=00000000
               11505=> get soc_to_fpga_axis be : soc_to_fpga_axis_captured_count=  1,  soc_to_fpga_axis_captured[  1] =xxxxxxxxxxxx, fpga_is_as_tupsb=xx, fpga_is_as_tstrb=x, fpga_is_as_tkeep=x , fpga_is_as_tlast=0, fpga_is_as_tdata=fffffff6
               11505=> get soc_to_fpga_axis af : soc_to_fpga_axis_captured_count=  1,  soc_to_fpga_axis_captured[  1] =xxxXfffffff6, fpga_is_as_tupsb=xx, fpga_is_as_tstrb=x, fpga_is_as_tkeep=x , fpga_is_as_tlast=0, fpga_is_as_tdata=fffffff6
               12065=> get soc_to_fpga_axis be : soc_to_fpga_axis_captured_count=  2,  soc_to_fpga_axis_captured[  2] =xxxxxxxxxxxx, fpga_is_as_tupsb=xx, fpga_is_as_tstrb=x, fpga_is_as_tkeep=x , fpga_is_as_tlast=0, fpga_is_as_tdata=ffffffe3
               12065=> get soc_to_fpga_axis af : soc_to_fpga_axis_captured_count=  2,  soc_to_fpga_axis_captured[  2] =xxxXffffffe3, fpga_is_as_tupsb=xx, fpga_is_as_tstrb=x, fpga_is_as_tkeep=x , fpga_is_as_tlast=0, fpga_is_as_tdata=ffffffe3
               12625=> get soc_to_fpga_axis be : soc_to_fpga_axis_captured_count=  3,  soc_to_fpga_axis_captured[  3] =xxxxxxxxxxxx, fpga_is_as_tupsb=xx, fpga_is_as_tstrb=x, fpga_is_as_tkeep=x , fpga_is_as_tlast=0, fpga_is_as_tdata=ffffffe7
               12625=> get soc_to_fpga_axis af : soc_to_fpga_axis_captured_count=  3,  soc_to_fpga_axis_captured[  3] =xxxXffffffe7, fpga_is_as_tupsb=xx, fpga_is_as_tstrb=x, fpga_is_as_tkeep=x , fpga_is_as_tlast=0, fpga_is_as_tdata=ffffffe7
               13185=> get soc_to_fpga_axis be : soc_to_fpga_axis_captured_count=  4,  soc_to_fpga_axis_captured[  4] =xxxxxxxxxxxx, fpga_is_as_tupsb=xx, fpga_is_as_tstrb=x, fpga_is_as_tkeep=x , fpga_is_as_tlast=0, fpga_is_as_tdata=00000023
               13185=> get soc_to_fpga_axis af : soc_to_fpga_axis_captured_count=  4,  soc_to_fpga_axis_captured[  4] =xxxX00000023, fpga_is_as_tupsb=xx, fpga_is_as_tstrb=x, fpga_is_as_tkeep=x , fpga_is_as_tlast=0, fpga_is_as_tdata=00000023
               13745=> get soc_to_fpga_axis be : soc_to_fpga_axis_captured_count=  5,  soc_to_fpga_axis_captured[  5] =xxxxxxxxxxxx, fpga_is_as_tupsb=xx, fpga_is_as_tstrb=x, fpga_is_as_tkeep=x , fpga_is_as_tlast=0, fpga_is_as_tdata=0000009e
               13745=> get soc_to_fpga_axis af : soc_to_fpga_axis_captured_count=  5,  soc_to_fpga_axis_captured[  5] =xxxX0000009e, fpga_is_as_tupsb=xx, fpga_is_as_tstrb=x, fpga_is_as_tkeep=x , fpga_is_as_tlast=0, fpga_is_as_tdata=0000009e
               14305=> get soc_to_fpga_axis be : soc_to_fpga_axis_captured_count=  6,  soc_to_fpga_axis_captured[  6] =xxxxxxxxxxxx, fpga_is_as_tupsb=xx, fpga_is_as_tstrb=x, fpga_is_as_tkeep=x , fpga_is_as_tlast=0, fpga_is_as_tdata=00000151
               14305=> get soc_to_fpga_axis af : soc_to_fpga_axis_captured_count=  6,  soc_to_fpga_axis_captured[  6] =xxxX00000151, fpga_is_as_tupsb=xx, fpga_is_as_tstrb=x, fpga_is_as_tkeep=x , fpga_is_as_tlast=0, fpga_is_as_tdata=00000151
               14865=> get soc_to_fpga_axis be : soc_to_fpga_axis_captured_count=  7,  soc_to_fpga_axis_captured[  7] =xxxxxxxxxxxx, fpga_is_as_tupsb=xx, fpga_is_as_tstrb=x, fpga_is_as_tkeep=x , fpga_is_as_tlast=0, fpga_is_as_tdata=0000021b
               14865=> get soc_to_fpga_axis af : soc_to_fpga_axis_captured_count=  7,  soc_to_fpga_axis_captured[  7] =xxxX0000021b, fpga_is_as_tupsb=xx, fpga_is_as_tstrb=x, fpga_is_as_tkeep=x , fpga_is_as_tlast=0, fpga_is_as_tdata=0000021b
               15425=> get soc_to_fpga_axis be : soc_to_fpga_axis_captured_count=  8,  soc_to_fpga_axis_captured[  8] =xxxxxxxxxxxx, fpga_is_as_tupsb=xx, fpga_is_as_tstrb=x, fpga_is_as_tkeep=x , fpga_is_as_tlast=0, fpga_is_as_tdata=000002dc
               15425=> get soc_to_fpga_axis af : soc_to_fpga_axis_captured_count=  8,  soc_to_fpga_axis_captured[  8] =xxxX000002dc, fpga_is_as_tupsb=xx, fpga_is_as_tstrb=x, fpga_is_as_tkeep=x , fpga_is_as_tlast=0, fpga_is_as_tdata=000002dc
               15545=> fpga_axis_req send data, fpga_as_is_tupsb = 00000, fpga_as_is_tstrb = 0000, fpga_as_is_tkeep = 0000, fpga_as_is_tlast = 0, fpga_as_is_tdata = 00000012
               15585=> fpga_axis_req send data, fpga_as_is_tupsb = 00000, fpga_as_is_tstrb = 0000, fpga_as_is_tkeep = 0000, fpga_as_is_tlast = 0, fpga_as_is_tdata = 00000013
               15625=> fpga_axis_req send data, fpga_as_is_tupsb = 00000, fpga_as_is_tstrb = 0000, fpga_as_is_tkeep = 0000, fpga_as_is_tlast = 0, fpga_as_is_tdata = 00000014
               15665=> fpga_axis_req send data, fpga_as_is_tupsb = 00000, fpga_as_is_tstrb = 0000, fpga_as_is_tkeep = 0000, fpga_as_is_tlast = 0, fpga_as_is_tdata = 00000015
               15705=> fpga_axis_req send data, fpga_as_is_tupsb = 00000, fpga_as_is_tstrb = 0000, fpga_as_is_tkeep = 0000, fpga_as_is_tlast = 0, fpga_as_is_tdata = 00000016
               15745=> fpga_axis_req send data, fpga_as_is_tupsb = 00000, fpga_as_is_tstrb = 0000, fpga_as_is_tkeep = 0000, fpga_as_is_tlast = 0, fpga_as_is_tdata = 00000017
               15785=> fpga_axis_req send data, fpga_as_is_tupsb = 00000, fpga_as_is_tstrb = 0000, fpga_as_is_tkeep = 0000, fpga_as_is_tlast = 0, fpga_as_is_tdata = 00000018
               15825=> fpga_axis_req send data, fpga_as_is_tupsb = 00000, fpga_as_is_tstrb = 0000, fpga_as_is_tkeep = 0000, fpga_as_is_tlast = 0, fpga_as_is_tdata = 00000019
               15865=> fpga_axis_req send data, fpga_as_is_tupsb = 00000, fpga_as_is_tstrb = 0000, fpga_as_is_tkeep = 0000, fpga_as_is_tlast = 0, fpga_as_is_tdata = 0000001a
               15985=> get soc_to_fpga_axis be : soc_to_fpga_axis_captured_count=  9,  soc_to_fpga_axis_captured[  9] =xxxxxxxxxxxx, fpga_is_as_tupsb=xx, fpga_is_as_tstrb=x, fpga_is_as_tkeep=x , fpga_is_as_tlast=0, fpga_is_as_tdata=00000393
               15985=> get soc_to_fpga_axis af : soc_to_fpga_axis_captured_count=  9,  soc_to_fpga_axis_captured[  9] =xxxX00000393, fpga_is_as_tupsb=xx, fpga_is_as_tstrb=x, fpga_is_as_tkeep=x , fpga_is_as_tlast=0, fpga_is_as_tdata=00000393
               16545=> get soc_to_fpga_axis be : soc_to_fpga_axis_captured_count= 10,  soc_to_fpga_axis_captured[ 10] =xxxxxxxxxxxx, fpga_is_as_tupsb=xx, fpga_is_as_tstrb=x, fpga_is_as_tkeep=x , fpga_is_as_tlast=0, fpga_is_as_tdata=0000044a
               16545=> get soc_to_fpga_axis af : soc_to_fpga_axis_captured_count= 10,  soc_to_fpga_axis_captured[ 10] =xxxX0000044a, fpga_is_as_tupsb=xx, fpga_is_as_tstrb=x, fpga_is_as_tkeep=x , fpga_is_as_tlast=0, fpga_is_as_tdata=0000044a
               17105=> get soc_to_fpga_axis be : soc_to_fpga_axis_captured_count= 11,  soc_to_fpga_axis_captured[ 11] =xxxxxxxxxxxx, fpga_is_as_tupsb=xx, fpga_is_as_tstrb=x, fpga_is_as_tkeep=x , fpga_is_as_tlast=0, fpga_is_as_tdata=00000501
               17105=> get soc_to_fpga_axis af : soc_to_fpga_axis_captured_count= 11,  soc_to_fpga_axis_captured[ 11] =xxxX00000501, fpga_is_as_tupsb=xx, fpga_is_as_tstrb=x, fpga_is_as_tkeep=x , fpga_is_as_tlast=0, fpga_is_as_tdata=00000501
               17665=> get soc_to_fpga_axis be : soc_to_fpga_axis_captured_count= 12,  soc_to_fpga_axis_captured[ 12] =xxxxxxxxxxxx, fpga_is_as_tupsb=xx, fpga_is_as_tstrb=x, fpga_is_as_tkeep=x , fpga_is_as_tlast=0, fpga_is_as_tdata=000005b8
               17665=> get soc_to_fpga_axis af : soc_to_fpga_axis_captured_count= 12,  soc_to_fpga_axis_captured[ 12] =xxxX000005b8, fpga_is_as_tupsb=xx, fpga_is_as_tstrb=x, fpga_is_as_tkeep=x , fpga_is_as_tlast=0, fpga_is_as_tdata=000005b8
               18225=> get soc_to_fpga_axis be : soc_to_fpga_axis_captured_count= 13,  soc_to_fpga_axis_captured[ 13] =xxxxxxxxxxxx, fpga_is_as_tupsb=xx, fpga_is_as_tstrb=x, fpga_is_as_tkeep=x , fpga_is_as_tlast=0, fpga_is_as_tdata=0000066f
               18225=> get soc_to_fpga_axis af : soc_to_fpga_axis_captured_count= 13,  soc_to_fpga_axis_captured[ 13] =xxxX0000066f, fpga_is_as_tupsb=xx, fpga_is_as_tstrb=x, fpga_is_as_tkeep=x , fpga_is_as_tlast=0, fpga_is_as_tdata=0000066f
               18785=> get soc_to_fpga_axis be : soc_to_fpga_axis_captured_count= 14,  soc_to_fpga_axis_captured[ 14] =xxxxxxxxxxxx, fpga_is_as_tupsb=xx, fpga_is_as_tstrb=x, fpga_is_as_tkeep=x , fpga_is_as_tlast=0, fpga_is_as_tdata=00000726
               18785=> get soc_to_fpga_axis af : soc_to_fpga_axis_captured_count= 14,  soc_to_fpga_axis_captured[ 14] =xxxX00000726, fpga_is_as_tupsb=xx, fpga_is_as_tstrb=x, fpga_is_as_tkeep=x , fpga_is_as_tlast=0, fpga_is_as_tdata=00000726
               19345=> get soc_to_fpga_axis be : soc_to_fpga_axis_captured_count= 15,  soc_to_fpga_axis_captured[ 15] =xxxxxxxxxxxx, fpga_is_as_tupsb=xx, fpga_is_as_tstrb=x, fpga_is_as_tkeep=x , fpga_is_as_tlast=0, fpga_is_as_tdata=000007dd
               19345=> get soc_to_fpga_axis af : soc_to_fpga_axis_captured_count= 15,  soc_to_fpga_axis_captured[ 15] =xxxX000007dd, fpga_is_as_tupsb=xx, fpga_is_as_tstrb=x, fpga_is_as_tkeep=x , fpga_is_as_tlast=0, fpga_is_as_tdata=000007dd
               19905=> get soc_to_fpga_axis be : soc_to_fpga_axis_captured_count= 16,  soc_to_fpga_axis_captured[ 16] =xxxxxxxxxxxx, fpga_is_as_tupsb=xx, fpga_is_as_tstrb=x, fpga_is_as_tkeep=x , fpga_is_as_tlast=0, fpga_is_as_tdata=00000894
               19905=> get soc_to_fpga_axis af : soc_to_fpga_axis_captured_count= 16,  soc_to_fpga_axis_captured[ 16] =xxxX00000894, fpga_is_as_tupsb=xx, fpga_is_as_tstrb=x, fpga_is_as_tkeep=x , fpga_is_as_tlast=0, fpga_is_as_tdata=00000894
               20465=> get soc_to_fpga_axis be : soc_to_fpga_axis_captured_count= 17,  soc_to_fpga_axis_captured[ 17] =xxxxxxxxxxxx, fpga_is_as_tupsb=xx, fpga_is_as_tstrb=x, fpga_is_as_tkeep=x , fpga_is_as_tlast=0, fpga_is_as_tdata=0000094b
               20465=> get soc_to_fpga_axis af : soc_to_fpga_axis_captured_count= 17,  soc_to_fpga_axis_captured[ 17] =xxxX0000094b, fpga_is_as_tupsb=xx, fpga_is_as_tstrb=x, fpga_is_as_tkeep=x , fpga_is_as_tlast=0, fpga_is_as_tdata=0000094b
               20585=> fpga_axis_req send data, fpga_as_is_tupsb = 00000, fpga_as_is_tstrb = 0000, fpga_as_is_tkeep = 0000, fpga_as_is_tlast = 0, fpga_as_is_tdata = 0000001b
               20625=> fpga_axis_req send data, fpga_as_is_tupsb = 00000, fpga_as_is_tstrb = 0000, fpga_as_is_tkeep = 0000, fpga_as_is_tlast = 0, fpga_as_is_tdata = 0000001c
               20665=> fpga_axis_req send data, fpga_as_is_tupsb = 00000, fpga_as_is_tstrb = 0000, fpga_as_is_tkeep = 0000, fpga_as_is_tlast = 0, fpga_as_is_tdata = 0000001d
               20705=> fpga_axis_req send data, fpga_as_is_tupsb = 00000, fpga_as_is_tstrb = 0000, fpga_as_is_tkeep = 0000, fpga_as_is_tlast = 0, fpga_as_is_tdata = 0000001e
               20745=> fpga_axis_req send data, fpga_as_is_tupsb = 00000, fpga_as_is_tstrb = 0000, fpga_as_is_tkeep = 0000, fpga_as_is_tlast = 0, fpga_as_is_tdata = 0000001f
               20785=> fpga_axis_req send data, fpga_as_is_tupsb = 00000, fpga_as_is_tstrb = 0000, fpga_as_is_tkeep = 0000, fpga_as_is_tlast = 0, fpga_as_is_tdata = 00000020
               20825=> fpga_axis_req send data, fpga_as_is_tupsb = 00000, fpga_as_is_tstrb = 0000, fpga_as_is_tkeep = 0000, fpga_as_is_tlast = 0, fpga_as_is_tdata = 00000021
               20865=> fpga_axis_req send data, fpga_as_is_tupsb = 00000, fpga_as_is_tstrb = 0000, fpga_as_is_tkeep = 0000, fpga_as_is_tlast = 0, fpga_as_is_tdata = 00000022
               20905=> fpga_axis_req send data, fpga_as_is_tupsb = 00000, fpga_as_is_tstrb = 0000, fpga_as_is_tkeep = 0000, fpga_as_is_tlast = 0, fpga_as_is_tdata = 00000023
               21025=> get soc_to_fpga_axis be : soc_to_fpga_axis_captured_count= 18,  soc_to_fpga_axis_captured[ 18] =xxxxxxxxxxxx, fpga_is_as_tupsb=xx, fpga_is_as_tstrb=x, fpga_is_as_tkeep=x , fpga_is_as_tlast=0, fpga_is_as_tdata=00000a02
               21025=> get soc_to_fpga_axis af : soc_to_fpga_axis_captured_count= 18,  soc_to_fpga_axis_captured[ 18] =xxxX00000a02, fpga_is_as_tupsb=xx, fpga_is_as_tstrb=x, fpga_is_as_tkeep=x , fpga_is_as_tlast=0, fpga_is_as_tdata=00000a02
               21585=> get soc_to_fpga_axis be : soc_to_fpga_axis_captured_count= 19,  soc_to_fpga_axis_captured[ 19] =xxxxxxxxxxxx, fpga_is_as_tupsb=xx, fpga_is_as_tstrb=x, fpga_is_as_tkeep=x , fpga_is_as_tlast=0, fpga_is_as_tdata=00000ab9
               21585=> get soc_to_fpga_axis af : soc_to_fpga_axis_captured_count= 19,  soc_to_fpga_axis_captured[ 19] =xxxX00000ab9, fpga_is_as_tupsb=xx, fpga_is_as_tstrb=x, fpga_is_as_tkeep=x , fpga_is_as_tlast=0, fpga_is_as_tdata=00000ab9
               22145=> get soc_to_fpga_axis be : soc_to_fpga_axis_captured_count= 20,  soc_to_fpga_axis_captured[ 20] =xxxxxxxxxxxx, fpga_is_as_tupsb=xx, fpga_is_as_tstrb=x, fpga_is_as_tkeep=x , fpga_is_as_tlast=0, fpga_is_as_tdata=00000b70
